  1  10  401 PROCEDURE
  1  17 1001 A1111
  1  17   59 ;
  2  10  401 PROCEDURE
  2  17 1002 Q36ILY
  2  19   40 (
  2  21 1003 A
  2  21   59 ;
  3  10  401 PROCEDURE
  3  14 1004 XXX
  3  15   40 (
  3  17 1003 A
  3  19 1005 B
  3  19   44 ,
  3  22 1006 C
  3  22   44 ,
  3  25 1007 D
  3  25   41 )
  3  26   59 ;
  4   6  402 BEGIN
  5  12 1008 DDD
  5  13   40 (
  5  17  501 132
  5  17   44 ,
  5  21  502 212
  5  22   44 ,
  5  25  503 33
  5  25   41 )
  5  26   59 ;
  6  15  404 RETURN
  6  15   59 ;
  7  12 1009 AAA
  7  13   59 ;
  8  15  404 RETURN
  8  15   59 ;
  9   4  403 END
Constants:
	 501 132
	 502 212
	 503 33
Identifiers:
	1001 A1111
	1002 Q36ILY
	1003 A
	1004 XXX
	1005 B
	1006 C
	1007 D
	1008 DDD
	1009 AAA
Lexenator: Error(Line 1, Column 12): Illegal symbol 'A'
